; ModuleID = 'obj\Debug\130\android\marshal_methods.x86_64.ll'
source_filename = "obj\Debug\130\android\marshal_methods.x86_64.ll"
target datalayout = "e-m:e-p270:32:32-p271:32:32-p272:64:64-i64:64-f80:128-n8:16:32:64-S128"
target triple = "x86_64-unknown-linux-android"


%struct.MonoImage = type opaque

%struct.MonoClass = type opaque

%struct.MarshalMethodsManagedClass = type {
	i32,; uint32_t token
	%struct.MonoClass*; MonoClass* klass
}

%struct.MarshalMethodName = type {
	i64,; uint64_t id
	i8*; char* name
}

%class._JNIEnv = type opaque

%class._jobject = type {
	i8; uint8_t b
}

%class._jclass = type {
	i8; uint8_t b
}

%class._jstring = type {
	i8; uint8_t b
}

%class._jthrowable = type {
	i8; uint8_t b
}

%class._jarray = type {
	i8; uint8_t b
}

%class._jobjectArray = type {
	i8; uint8_t b
}

%class._jbooleanArray = type {
	i8; uint8_t b
}

%class._jbyteArray = type {
	i8; uint8_t b
}

%class._jcharArray = type {
	i8; uint8_t b
}

%class._jshortArray = type {
	i8; uint8_t b
}

%class._jintArray = type {
	i8; uint8_t b
}

%class._jlongArray = type {
	i8; uint8_t b
}

%class._jfloatArray = type {
	i8; uint8_t b
}

%class._jdoubleArray = type {
	i8; uint8_t b
}

; assembly_image_cache
@assembly_image_cache = local_unnamed_addr global [0 x %struct.MonoImage*] zeroinitializer, align 8
; Each entry maps hash of an assembly name to an index into the `assembly_image_cache` array
@assembly_image_cache_hashes = local_unnamed_addr constant [190 x i64] [
	i64 24362543149721218, ; 0: Xamarin.AndroidX.DynamicAnimation => 0x568d9a9a43a682 => 42
	i64 120698629574877762, ; 1: Mono.Android => 0x1accec39cafe242 => 2
	i64 210515253464952879, ; 2: Xamarin.AndroidX.Collection.dll => 0x2ebe681f694702f => 30
	i64 232391251801502327, ; 3: Xamarin.AndroidX.SavedState.dll => 0x3399e9cbc897277 => 61
	i64 316157742385208084, ; 4: Xamarin.AndroidX.Core.Core.Ktx.dll => 0x46337caa7dc1b14 => 35
	i64 634308326490598313, ; 5: Xamarin.AndroidX.Lifecycle.Runtime.dll => 0x8cd840fee8b6ba9 => 51
	i64 702024105029695270, ; 6: System.Drawing.Common => 0x9be17343c0e7726 => 82
	i64 870603111519317375, ; 7: SQLitePCLRaw.lib.e_sqlite3.android => 0xc1500ead2756d7f => 8
	i64 872800313462103108, ; 8: Xamarin.AndroidX.DrawerLayout => 0xc1ccf42c3c21c44 => 41
	i64 940822596282819491, ; 9: System.Transactions => 0xd0e792aa81923a3 => 85
	i64 1000557547492888992, ; 10: Mono.Security.dll => 0xde2b1c9cba651a0 => 94
	i64 1120440138749646132, ; 11: Xamarin.Google.Android.Material.dll => 0xf8c9a5eae431534 => 71
	i64 1301485588176585670, ; 12: SQLitePCLRaw.core => 0x120fce3f338e43c6 => 7
	i64 1315114680217950157, ; 13: Xamarin.AndroidX.Arch.Core.Common.dll => 0x124039d5794ad7cd => 26
	i64 1425944114962822056, ; 14: System.Runtime.Serialization.dll => 0x13c9f89e19eaf3a8 => 90
	i64 1518315023656898250, ; 15: SQLitePCLRaw.provider.e_sqlite3 => 0x151223783a354eca => 9
	i64 1624659445732251991, ; 16: Xamarin.AndroidX.AppCompat.AppCompatResources.dll => 0x168bf32877da9957 => 24
	i64 1628611045998245443, ; 17: Xamarin.AndroidX.Lifecycle.ViewModelSavedState.dll => 0x1699fd1e1a00b643 => 53
	i64 1636321030536304333, ; 18: Xamarin.AndroidX.Legacy.Support.Core.Utils.dll => 0x16b5614ec39e16cd => 47
	i64 1731380447121279447, ; 19: Newtonsoft.Json => 0x18071957e9b889d7 => 4
	i64 1743969030606105336, ; 20: System.Memory.dll => 0x1833d297e88f2af8 => 13
	i64 1795316252682057001, ; 21: Xamarin.AndroidX.AppCompat.dll => 0x18ea3e9eac997529 => 25
	i64 1836611346387731153, ; 22: Xamarin.AndroidX.SavedState => 0x197cf449ebe482d1 => 61
	i64 1875917498431009007, ; 23: Xamarin.AndroidX.Annotation.dll => 0x1a08990699eb70ef => 21
	i64 1981742497975770890, ; 24: Xamarin.AndroidX.Lifecycle.ViewModel.dll => 0x1b80904d5c241f0a => 52
	i64 2064708342624596306, ; 25: Xamarin.Kotlin.StdLib.Jdk7.dll => 0x1ca7514c5eecb152 => 77
	i64 2133195048986300728, ; 26: Newtonsoft.Json.dll => 0x1d9aa1984b735138 => 4
	i64 2136356949452311481, ; 27: Xamarin.AndroidX.MultiDex.dll => 0x1da5dd539d8acbb9 => 56
	i64 2165725771938924357, ; 28: Xamarin.AndroidX.Browser => 0x1e0e341d75540745 => 28
	i64 2250640118147908828, ; 29: YouTube.Player.Android.dll => 0x1f3be143577304dc => 81
	i64 2262844636196693701, ; 30: Xamarin.AndroidX.DrawerLayout.dll => 0x1f673d352266e6c5 => 41
	i64 2284400282711631002, ; 31: System.Web.Services => 0x1fb3d1f42fd4249a => 92
	i64 2304837677853103545, ; 32: Xamarin.AndroidX.ResourceInspection.Annotation.dll => 0x1ffc6da80d5ed5b9 => 60
	i64 2329709569556905518, ; 33: Xamarin.AndroidX.Lifecycle.LiveData.Core.dll => 0x2054ca829b447e2e => 49
	i64 2337758774805907496, ; 34: System.Runtime.CompilerServices.Unsafe => 0x207163383edbc828 => 17
	i64 2470498323731680442, ; 35: Xamarin.AndroidX.CoordinatorLayout => 0x2248f922dc398cba => 34
	i64 2479423007379663237, ; 36: Xamarin.AndroidX.VectorDrawable.Animated.dll => 0x2268ae16b2cba985 => 65
	i64 2497223385847772520, ; 37: System.Runtime => 0x22a7eb7046413568 => 18
	i64 2547086958574651984, ; 38: Xamarin.AndroidX.Activity.dll => 0x2359121801df4a50 => 20
	i64 2592350477072141967, ; 39: System.Xml.dll => 0x23f9e10627330e8f => 19
	i64 2624866290265602282, ; 40: mscorlib.dll => 0x246d65fbde2db8ea => 3
	i64 2783046991838674048, ; 41: System.Runtime.CompilerServices.Unsafe.dll => 0x269f5e7e6dc37c80 => 17
	i64 2787234703088983483, ; 42: Xamarin.AndroidX.Startup.StartupRuntime => 0x26ae3f31ef429dbb => 62
	i64 3017704767998173186, ; 43: Xamarin.Google.Android.Material => 0x29e10a7f7d88a002 => 71
	i64 3289520064315143713, ; 44: Xamarin.AndroidX.Lifecycle.Common => 0x2da6b911e3063621 => 48
	i64 3303437397778967116, ; 45: Xamarin.AndroidX.Annotation.Experimental => 0x2dd82acf985b2a4c => 22
	i64 3311221304742556517, ; 46: System.Numerics.Vectors.dll => 0x2df3d23ba9e2b365 => 16
	i64 3344514922410554693, ; 47: Xamarin.KotlinX.Coroutines.Core.Jvm => 0x2e6a1a9a18463545 => 80
	i64 3493805808809882663, ; 48: Xamarin.AndroidX.Tracing.Tracing.dll => 0x307c7ddf444f3427 => 63
	i64 3531994851595924923, ; 49: System.Numerics => 0x31042a9aade235bb => 15
	i64 3571415421602489686, ; 50: System.Runtime.dll => 0x319037675df7e556 => 18
	i64 3716579019761409177, ; 51: netstandard.dll => 0x3393f0ed5c8c5c99 => 83
	i64 3727469159507183293, ; 52: Xamarin.AndroidX.RecyclerView => 0x33baa1739ba646bd => 59
	i64 3772598417116884899, ; 53: Xamarin.AndroidX.DynamicAnimation.dll => 0x345af645b473efa3 => 42
	i64 3966267475168208030, ; 54: System.Memory => 0x370b03412596249e => 13
	i64 4201423742386704971, ; 55: Xamarin.AndroidX.Core.Core.Ktx => 0x3a4e74a233da124b => 35
	i64 4337444564132831293, ; 56: SQLitePCLRaw.batteries_v2.dll => 0x3c31b2d9ae16203d => 6
	i64 4525561845656915374, ; 57: System.ServiceModel.Internals => 0x3ece06856b710dae => 91
	i64 4636684751163556186, ; 58: Xamarin.AndroidX.VersionedParcelable.dll => 0x4058d0370893015a => 67
	i64 4759461199762736555, ; 59: Xamarin.AndroidX.Lifecycle.Process.dll => 0x420d00be961cc5ab => 50
	i64 4794310189461587505, ; 60: Xamarin.AndroidX.Activity => 0x4288cfb749e4c631 => 20
	i64 5203618020066742981, ; 61: Xamarin.Essentials => 0x4836f704f0e652c5 => 70
	i64 5205316157927637098, ; 62: Xamarin.AndroidX.LocalBroadcastManager => 0x483cff7778e0c06a => 55
	i64 5376510917114486089, ; 63: Xamarin.AndroidX.VectorDrawable.Animated => 0x4a9d3431719e5d49 => 65
	i64 5408338804355907810, ; 64: Xamarin.AndroidX.Transition => 0x4b0e477cea9840e2 => 64
	i64 5451019430259338467, ; 65: Xamarin.AndroidX.ConstraintLayout.dll => 0x4ba5e94a845c2ce3 => 33
	i64 5507995362134886206, ; 66: System.Core.dll => 0x4c705499688c873e => 11
	i64 5574231584441077149, ; 67: Xamarin.AndroidX.Annotation.Jvm => 0x4d5ba617ae5f8d9d => 23
	i64 5692067934154308417, ; 68: Xamarin.AndroidX.ViewPager2.dll => 0x4efe49a0d4a8bb41 => 69
	i64 5757522595884336624, ; 69: Xamarin.AndroidX.Concurrent.Futures.dll => 0x4fe6d44bd9f885f0 => 31
	i64 6183170893902868313, ; 70: SQLitePCLRaw.batteries_v2 => 0x55cf092b0c9d6f59 => 6
	i64 6319713645133255417, ; 71: Xamarin.AndroidX.Lifecycle.Runtime => 0x57b42213b45b52f9 => 51
	i64 6401687960814735282, ; 72: Xamarin.AndroidX.Lifecycle.LiveData.Core => 0x58d75d486341cfb2 => 49
	i64 6504860066809920875, ; 73: Xamarin.AndroidX.Browser.dll => 0x5a45e7c43bd43d6b => 28
	i64 6548213210057960872, ; 74: Xamarin.AndroidX.CustomView.dll => 0x5adfed387b066da8 => 38
	i64 6589202984700901502, ; 75: Xamarin.Google.ErrorProne.Annotations.dll => 0x5b718d34180a787e => 72
	i64 6591024623626361694, ; 76: System.Web.Services.dll => 0x5b7805f9751a1b5e => 92
	i64 6876862101832370452, ; 77: System.Xml.Linq => 0x5f6f85a57d108914 => 93
	i64 6894844156784520562, ; 78: System.Numerics.Vectors => 0x5faf683aead1ad72 => 16
	i64 7103753931438454322, ; 79: Xamarin.AndroidX.Interpolator.dll => 0x62959a90372c7632 => 46
	i64 7488575175965059935, ; 80: System.Xml.Linq.dll => 0x67ecc3724534ab5f => 93
	i64 7637365915383206639, ; 81: Xamarin.Essentials.dll => 0x69fd5fd5e61792ef => 70
	i64 7654504624184590948, ; 82: System.Net.Http => 0x6a3a4366801b8264 => 14
	i64 7735352534559001595, ; 83: Xamarin.Kotlin.StdLib.dll => 0x6b597e2582ce8bfb => 76
	i64 7820441508502274321, ; 84: System.Data => 0x6c87ca1e14ff8111 => 84
	i64 7836164640616011524, ; 85: Xamarin.AndroidX.AppCompat.AppCompatResources => 0x6cbfa6390d64d704 => 24
	i64 8044118961405839122, ; 86: System.ComponentModel.Composition => 0x6fa2739369944712 => 89
	i64 8083354569033831015, ; 87: Xamarin.AndroidX.Lifecycle.Common.dll => 0x702dd82730cad267 => 48
	i64 8103644804370223335, ; 88: System.Data.DataSetExtensions.dll => 0x7075ee03be6d50e7 => 86
	i64 8167236081217502503, ; 89: Java.Interop.dll => 0x7157d9f1a9b8fd27 => 1
	i64 8187640529827139739, ; 90: Xamarin.KotlinX.Coroutines.Android => 0x71a057ae90f0109b => 79
	i64 8398329775253868912, ; 91: Xamarin.AndroidX.ConstraintLayout.Core.dll => 0x748cdc6f3097d170 => 32
	i64 8426919725312979251, ; 92: Xamarin.AndroidX.Lifecycle.Process => 0x74f26ed7aa033133 => 50
	i64 8598790081731763592, ; 93: Xamarin.AndroidX.Emoji2.ViewsHelper.dll => 0x77550a055fc61d88 => 44
	i64 8601935802264776013, ; 94: Xamarin.AndroidX.Transition.dll => 0x7760370982b4ed4d => 64
	i64 8626175481042262068, ; 95: Java.Interop => 0x77b654e585b55834 => 1
	i64 8684531736582871431, ; 96: System.IO.Compression.FileSystem => 0x7885a79a0fa0d987 => 88
	i64 8853378295825400934, ; 97: Xamarin.Kotlin.StdLib.Common.dll => 0x7add84a720d38466 => 75
	i64 8951477988056063522, ; 98: Xamarin.AndroidX.ProfileInstaller.ProfileInstaller => 0x7c3a09cd9ccf5e22 => 58
	i64 9312692141327339315, ; 99: Xamarin.AndroidX.ViewPager2 => 0x813d54296a634f33 => 69
	i64 9324707631942237306, ; 100: Xamarin.AndroidX.AppCompat => 0x8168042fd44a7c7a => 25
	i64 9662334977499516867, ; 101: System.Numerics.dll => 0x8617827802b0cfc3 => 15
	i64 9678050649315576968, ; 102: Xamarin.AndroidX.CoordinatorLayout.dll => 0x864f57c9feb18c88 => 34
	i64 9808709177481450983, ; 103: Mono.Android.dll => 0x881f890734e555e7 => 2
	i64 9825649861376906464, ; 104: Xamarin.AndroidX.Concurrent.Futures => 0x885bb87d8abc94e0 => 31
	i64 9834056768316610435, ; 105: System.Transactions.dll => 0x8879968718899783 => 85
	i64 9907349773706910547, ; 106: Xamarin.AndroidX.Emoji2.ViewsHelper => 0x897dfa20b758db53 => 44
	i64 9998632235833408227, ; 107: Mono.Security => 0x8ac2470b209ebae3 => 94
	i64 10038780035334861115, ; 108: System.Net.Http.dll => 0x8b50e941206af13b => 14
	i64 10226222362177979215, ; 109: Xamarin.Kotlin.StdLib.Jdk7 => 0x8dead70ebbc6434f => 77
	i64 10229024438826829339, ; 110: Xamarin.AndroidX.CustomView => 0x8df4cb880b10061b => 38
	i64 10321854143672141184, ; 111: Xamarin.Jetbrains.Annotations.dll => 0x8f3e97a7f8f8c580 => 74
	i64 10376576884623852283, ; 112: Xamarin.AndroidX.Tracing.Tracing => 0x900101b2f888c2fb => 63
	i64 10406448008575299332, ; 113: Xamarin.KotlinX.Coroutines.Core.Jvm.dll => 0x906b2153fcb3af04 => 80
	i64 10430153318873392755, ; 114: Xamarin.AndroidX.Core => 0x90bf592ea44f6673 => 36
	i64 10847732767863316357, ; 115: Xamarin.AndroidX.Arch.Core.Common => 0x968ae37a86db9f85 => 26
	i64 11019817191295005410, ; 116: Xamarin.AndroidX.Annotation.Jvm.dll => 0x98ee415998e1b2e2 => 23
	i64 11023048688141570732, ; 117: System.Core => 0x98f9bc61168392ac => 11
	i64 11037814507248023548, ; 118: System.Xml => 0x992e31d0412bf7fc => 19
	i64 11071824625609515081, ; 119: Xamarin.Google.ErrorProne.Annotations => 0x99a705d600e0a049 => 72
	i64 11162124722117608902, ; 120: Xamarin.AndroidX.ViewPager => 0x9ae7d54b986d05c6 => 68
	i64 11340910727871153756, ; 121: Xamarin.AndroidX.CursorAdapter => 0x9d630238642d465c => 37
	i64 11392833485892708388, ; 122: Xamarin.AndroidX.Print.dll => 0x9e1b79b18fcf6824 => 57
	i64 11529969570048099689, ; 123: Xamarin.AndroidX.ViewPager.dll => 0xa002ae3c4dc7c569 => 68
	i64 11580057168383206117, ; 124: Xamarin.AndroidX.Annotation => 0xa0b4a0a4103262e5 => 21
	i64 11591352189662810718, ; 125: Xamarin.AndroidX.Startup.StartupRuntime.dll => 0xa0dcc167234c525e => 62
	i64 11597940890313164233, ; 126: netstandard => 0xa0f429ca8d1805c9 => 83
	i64 11672361001936329215, ; 127: Xamarin.AndroidX.Interpolator => 0xa1fc8e7d0a8999ff => 46
	i64 11739066727115742305, ; 128: SQLite-net.dll => 0xa2e98afdf8575c61 => 5
	i64 11806260347154423189, ; 129: SQLite-net => 0xa3d8433bc5eb5d95 => 5
	i64 12102847907131387746, ; 130: System.Buffers => 0xa7f5f40c43256f62 => 10
	i64 12137774235383566651, ; 131: Xamarin.AndroidX.VectorDrawable => 0xa872095bbfed113b => 66
	i64 12279246230491828964, ; 132: SQLitePCLRaw.provider.e_sqlite3.dll => 0xaa68a5636e0512e4 => 9
	i64 12451044538927396471, ; 133: Xamarin.AndroidX.Fragment.dll => 0xaccaff0a2955b677 => 45
	i64 12466513435562512481, ; 134: Xamarin.AndroidX.Loader.dll => 0xad01f3eb52569061 => 54
	i64 12487638416075308985, ; 135: Xamarin.AndroidX.DocumentFile.dll => 0xad4d00fa21b0bfb9 => 40
	i64 12538491095302438457, ; 136: Xamarin.AndroidX.CardView.dll => 0xae01ab382ae67e39 => 29
	i64 12550732019250633519, ; 137: System.IO.Compression => 0xae2d28465e8e1b2f => 87
	i64 12700543734426720211, ; 138: Xamarin.AndroidX.Collection => 0xb041653c70d157d3 => 30
	i64 12828192437253469131, ; 139: Xamarin.Kotlin.StdLib.Jdk8.dll => 0xb206e50e14d873cb => 78
	i64 12949599928420313532, ; 140: MovieApp.dll => 0xb3b6388664eaa9bc => 0
	i64 12963446364377008305, ; 141: System.Drawing.Common.dll => 0xb3e769c8fd8548b1 => 82
	i64 12982280885948128408, ; 142: Xamarin.AndroidX.CustomView.PoolingContainer => 0xb42a53aec5481c98 => 39
	i64 13129914918964716986, ; 143: Xamarin.AndroidX.Emoji2.dll => 0xb636d40db3fe65ba => 43
	i64 13370592475155966277, ; 144: System.Runtime.Serialization => 0xb98de304062ea945 => 90
	i64 13401370062847626945, ; 145: Xamarin.AndroidX.VectorDrawable.dll => 0xb9fb3b1193964ec1 => 66
	i64 13404347523447273790, ; 146: Xamarin.AndroidX.ConstraintLayout.Core => 0xba05cf0da4f6393e => 32
	i64 13454009404024712428, ; 147: Xamarin.Google.Guava.ListenableFuture => 0xbab63e4543a86cec => 73
	i64 13465488254036897740, ; 148: Xamarin.Kotlin.StdLib => 0xbadf06394d106fcc => 76
	i64 13491513212026656886, ; 149: Xamarin.AndroidX.Arch.Core.Runtime.dll => 0xbb3b7bc905569876 => 27
	i64 13572454107664307259, ; 150: Xamarin.AndroidX.RecyclerView.dll => 0xbc5b0b19d99f543b => 59
	i64 13621154251410165619, ; 151: Xamarin.AndroidX.CustomView.PoolingContainer.dll => 0xbd080f9faa1acf73 => 39
	i64 13647894001087880694, ; 152: System.Data.dll => 0xbd670f48cb071df6 => 84
	i64 13756123458674808206, ; 153: YouTube.Player.Android => 0xbee7916710bad58e => 81
	i64 13828521679616088467, ; 154: Xamarin.Kotlin.StdLib.Common => 0xbfe8c733724e1993 => 75
	i64 13959074834287824816, ; 155: Xamarin.AndroidX.Fragment => 0xc1b8989a7ad20fb0 => 45
	i64 14124974489674258913, ; 156: Xamarin.AndroidX.CardView => 0xc405fd76067d19e1 => 29
	i64 14172845254133543601, ; 157: Xamarin.AndroidX.MultiDex => 0xc4b00faaed35f2b1 => 56
	i64 14261073672896646636, ; 158: Xamarin.AndroidX.Print => 0xc5e982f274ae0dec => 57
	i64 14495724990987328804, ; 159: Xamarin.AndroidX.ResourceInspection.Annotation => 0xc92b2913e18d5d24 => 60
	i64 14644440854989303794, ; 160: Xamarin.AndroidX.LocalBroadcastManager.dll => 0xcb3b815e37daeff2 => 55
	i64 14792063746108907174, ; 161: Xamarin.Google.Guava.ListenableFuture.dll => 0xcd47f79af9c15ea6 => 73
	i64 14852515768018889994, ; 162: Xamarin.AndroidX.CursorAdapter.dll => 0xce1ebc6625a76d0a => 37
	i64 14987728460634540364, ; 163: System.IO.Compression.dll => 0xcfff1ba06622494c => 87
	i64 14988210264188246988, ; 164: Xamarin.AndroidX.DocumentFile => 0xd000d1d307cddbcc => 40
	i64 15150743910298169673, ; 165: Xamarin.AndroidX.ProfileInstaller.ProfileInstaller.dll => 0xd2424150783c3149 => 58
	i64 15279429628684179188, ; 166: Xamarin.KotlinX.Coroutines.Android.dll => 0xd40b704b1c4c96f4 => 79
	i64 15370334346939861994, ; 167: Xamarin.AndroidX.Core.dll => 0xd54e65a72c560bea => 36
	i64 15582737692548360875, ; 168: Xamarin.AndroidX.Lifecycle.ViewModelSavedState => 0xd841015ed86f6aab => 53
	i64 15609085926864131306, ; 169: System.dll => 0xd89e9cf3334914ea => 12
	i64 15729514591897036737, ; 170: MovieApp => 0xda4a762ecb58a7c1 => 0
	i64 16154507427712707110, ; 171: System => 0xe03056ea4e39aa26 => 12
	i64 16423015068819898779, ; 172: Xamarin.Kotlin.StdLib.Jdk8 => 0xe3ea453135e5c19b => 78
	i64 16565028646146589191, ; 173: System.ComponentModel.Composition.dll => 0xe5e2cdc9d3bcc207 => 89
	i64 16621146507174665210, ; 174: Xamarin.AndroidX.ConstraintLayout => 0xe6aa2caf87dedbfa => 33
	i64 16755018182064898362, ; 175: SQLitePCLRaw.core.dll => 0xe885c843c330813a => 7
	i64 16822611501064131242, ; 176: System.Data.DataSetExtensions => 0xe975ec07bb5412aa => 86
	i64 16833383113903931215, ; 177: mscorlib => 0xe99c30c1484d7f4f => 3
	i64 17024911836938395553, ; 178: Xamarin.AndroidX.Annotation.Experimental.dll => 0xec44a31d250e5fa1 => 22
	i64 17037200463775726619, ; 179: Xamarin.AndroidX.Legacy.Support.Core.Utils => 0xec704b8e0a78fc1b => 47
	i64 17704177640604968747, ; 180: Xamarin.AndroidX.Loader => 0xf5b1dfc36cac272b => 54
	i64 17710060891934109755, ; 181: Xamarin.AndroidX.Lifecycle.ViewModel => 0xf5c6c68c9e45303b => 52
	i64 17838668724098252521, ; 182: System.Buffers.dll => 0xf78faeb0f5bf3ee9 => 10
	i64 17891337867145587222, ; 183: Xamarin.Jetbrains.Annotations => 0xf84accff6fb52a16 => 74
	i64 17928294245072900555, ; 184: System.IO.Compression.FileSystem.dll => 0xf8ce18a0b24011cb => 88
	i64 18116111925905154859, ; 185: Xamarin.AndroidX.Arch.Core.Runtime => 0xfb695bd036cb632b => 27
	i64 18129453464017766560, ; 186: System.ServiceModel.Internals.dll => 0xfb98c1df1ec108a0 => 91
	i64 18260797123374478311, ; 187: Xamarin.AndroidX.Emoji2 => 0xfd6b623bde35f3e7 => 43
	i64 18370042311372477656, ; 188: SQLitePCLRaw.lib.e_sqlite3.android.dll => 0xfeef80274e4094d8 => 8
	i64 18380184030268848184 ; 189: Xamarin.AndroidX.VersionedParcelable => 0xff1387fe3e7b7838 => 67
], align 16
@assembly_image_cache_indices = local_unnamed_addr constant [190 x i32] [
	i32 42, i32 2, i32 30, i32 61, i32 35, i32 51, i32 82, i32 8, ; 0..7
	i32 41, i32 85, i32 94, i32 71, i32 7, i32 26, i32 90, i32 9, ; 8..15
	i32 24, i32 53, i32 47, i32 4, i32 13, i32 25, i32 61, i32 21, ; 16..23
	i32 52, i32 77, i32 4, i32 56, i32 28, i32 81, i32 41, i32 92, ; 24..31
	i32 60, i32 49, i32 17, i32 34, i32 65, i32 18, i32 20, i32 19, ; 32..39
	i32 3, i32 17, i32 62, i32 71, i32 48, i32 22, i32 16, i32 80, ; 40..47
	i32 63, i32 15, i32 18, i32 83, i32 59, i32 42, i32 13, i32 35, ; 48..55
	i32 6, i32 91, i32 67, i32 50, i32 20, i32 70, i32 55, i32 65, ; 56..63
	i32 64, i32 33, i32 11, i32 23, i32 69, i32 31, i32 6, i32 51, ; 64..71
	i32 49, i32 28, i32 38, i32 72, i32 92, i32 93, i32 16, i32 46, ; 72..79
	i32 93, i32 70, i32 14, i32 76, i32 84, i32 24, i32 89, i32 48, ; 80..87
	i32 86, i32 1, i32 79, i32 32, i32 50, i32 44, i32 64, i32 1, ; 88..95
	i32 88, i32 75, i32 58, i32 69, i32 25, i32 15, i32 34, i32 2, ; 96..103
	i32 31, i32 85, i32 44, i32 94, i32 14, i32 77, i32 38, i32 74, ; 104..111
	i32 63, i32 80, i32 36, i32 26, i32 23, i32 11, i32 19, i32 72, ; 112..119
	i32 68, i32 37, i32 57, i32 68, i32 21, i32 62, i32 83, i32 46, ; 120..127
	i32 5, i32 5, i32 10, i32 66, i32 9, i32 45, i32 54, i32 40, ; 128..135
	i32 29, i32 87, i32 30, i32 78, i32 0, i32 82, i32 39, i32 43, ; 136..143
	i32 90, i32 66, i32 32, i32 73, i32 76, i32 27, i32 59, i32 39, ; 144..151
	i32 84, i32 81, i32 75, i32 45, i32 29, i32 56, i32 57, i32 60, ; 152..159
	i32 55, i32 73, i32 37, i32 87, i32 40, i32 58, i32 79, i32 36, ; 160..167
	i32 53, i32 12, i32 0, i32 12, i32 78, i32 89, i32 33, i32 7, ; 168..175
	i32 86, i32 3, i32 22, i32 47, i32 54, i32 52, i32 10, i32 74, ; 176..183
	i32 88, i32 27, i32 91, i32 43, i32 8, i32 67 ; 184..189
], align 16

@marshal_methods_number_of_classes = local_unnamed_addr constant i32 0, align 4

; marshal_methods_class_cache
@marshal_methods_class_cache = global [0 x %struct.MarshalMethodsManagedClass] [
], align 8; end of 'marshal_methods_class_cache' array


@get_function_pointer = internal unnamed_addr global void (i32, i32, i32, i8**)* null, align 8

; Function attributes: "frame-pointer"="none" "min-legal-vector-width"="0" mustprogress nofree norecurse nosync "no-trapping-math"="true" nounwind sspstrong "stack-protector-buffer-size"="8" "target-cpu"="x86-64" "target-features"="+cx16,+cx8,+fxsr,+mmx,+popcnt,+sse,+sse2,+sse3,+sse4.1,+sse4.2,+ssse3,+x87" "tune-cpu"="generic" uwtable willreturn writeonly
define void @xamarin_app_init (void (i32, i32, i32, i8**)* %fn) local_unnamed_addr #0
{
	store void (i32, i32, i32, i8**)* %fn, void (i32, i32, i32, i8**)** @get_function_pointer, align 8
	ret void
}

; Names of classes in which marshal methods reside
@mm_class_names = local_unnamed_addr constant [0 x i8*] zeroinitializer, align 8
@__MarshalMethodName_name.0 = internal constant [1 x i8] c"\00", align 1

; mm_method_names
@mm_method_names = local_unnamed_addr constant [1 x %struct.MarshalMethodName] [
	; 0
	%struct.MarshalMethodName {
		i64 0, ; id 0x0; name: 
		i8* getelementptr inbounds ([1 x i8], [1 x i8]* @__MarshalMethodName_name.0, i32 0, i32 0); name
	}
], align 16; end of 'mm_method_names' array


attributes #0 = { "min-legal-vector-width"="0" mustprogress nofree norecurse nosync "no-trapping-math"="true" nounwind sspstrong "stack-protector-buffer-size"="8" uwtable willreturn writeonly "frame-pointer"="none" "target-cpu"="x86-64" "target-features"="+cx16,+cx8,+fxsr,+mmx,+popcnt,+sse,+sse2,+sse3,+sse4.1,+sse4.2,+ssse3,+x87" "tune-cpu"="generic" }
attributes #1 = { "min-legal-vector-width"="0" mustprogress "no-trapping-math"="true" nounwind sspstrong "stack-protector-buffer-size"="8" uwtable "frame-pointer"="none" "target-cpu"="x86-64" "target-features"="+cx16,+cx8,+fxsr,+mmx,+popcnt,+sse,+sse2,+sse3,+sse4.1,+sse4.2,+ssse3,+x87" "tune-cpu"="generic" }
attributes #2 = { nounwind }

!llvm.module.flags = !{!0, !1}
!llvm.ident = !{!2}
!0 = !{i32 1, !"wchar_size", i32 4}
!1 = !{i32 7, !"PIC Level", i32 2}
!2 = !{!"Xamarin.Android remotes/origin/d17-5 @ a8a26c7b003e2524cc98acb2c2ffc2ddea0f6692"}
!llvm.linker.options = !{}
